ee201/project-1/res/A0029CH2.CSV

Memory Length,4000,
Trigger Level,6.400E-01,
Source,CH2,
Probe,10X,
Vertical Units,V,
Vertical Scale,2.000E-01,
Vertical Position,-6.400E-01,
Horizontal Units,s,
Horizontal Scale,2.500E-04,
Horizontal Position,1.010E-03,
Horizontal Mode,Main,
Sampling Period,1.000E-06,
Firmware,V1.13,
Time, ,
Mode,Fast,
Waveform Data,
124,
124,
-4,
-3,
-3,
-4,
-3,
-3,
-4,
-4,
-4,
-4,
-4,
-3,
-3,
-3,
-4,
-3,
-3,
-3,
-4,
-3,
-3,
-4,
-4,
-4,
-4,
-4,
-3,
-4,
-4,
-4,
-4,
-3,
-4,
-3,
-3,
-4,
-3,
-3,
-3,
-4,
-3,
-3,
-4,
-4,
-3,
-4,
-3,
-4,
-3,
-3,
-3,
-3,
-4,
-3,
-4,
-4,
-3,
-3,
-3,
-3,
-4,
-3,
-3,
-4,
-3,
-4,
-4,
-4,
-3,
-4,
-3,
-3,
-4,
-4,
-4,
-4,
-4,
-4,
-3,
-4,
-3,
-4,
-4,
-4,
-4,
-4,
-4,
-4,
-4,
-4,
-4,
-4,
-4,
-3,
-3,
-3,
-4,
-3,
-3,
-4,
-3,
-3,
-4,
-4,
-3,
-3,
-3,
-3,
-2,
-3,
-4,
-3,
-4,
-4,
-4,
-3,
-4,
-4,
-4,
-4,
-4,
-4,
-3,
-3,
-2,
-4,
-4,
-3,
-4,
-3,
-3,
-3,
-3,
-4,
-3,
-4,
-3,
-3,
-3,
-3,
-4,
-4,
-4,
-3,
-3,
-2,
-3,
-4,
-4,
-4,
-4,
-4,
-4,
-4,
-4,
-4,
-3,
-3,
-3,
-4,
-4,
-4,
-4,
-4,
-3,
-2,
-4,
-4,
-3,
-4,
-3,
-3,
-3,
-3,
-3,
-4,
-2,
-3,
-4,
-3,
-4,
-4,
-4,
-4,
-3,
-4,
-4,
-4,
-4,
-4,
-3,
-4,
-3,
-4,
-3,
-4,
-2,
-2,
-3,
-3,
-4,
-4,
-4,
-3,
-4,
-3,
-4,
-4,
-3,
-3,
-4,
-4,
-4,
-3,
-4,
-3,
-3,
-4,
-3,
-3,
-4,
-4,
-3,
-4,
-4,
-4,
-4,
-4,
-4,
-4,
-3,
-4,
-4,
-4,
-3,
-4,
-4,
-4,
-3,
-4,
-3,
-4,
-3,
-3,
-3,
-3,
-3,
-3,
-3,
-4,
-4,
-4,
-4,
-3,
-4,
-3,
-3,
-4,
-3,
-4,
-4,
-3,
-4,
-4,
-4,
-3,
-4,
-4,
-3,
-3,
-4,
-4,
-4,
-4,
-4,
-4,
-3,
-4,
-4,
-4,
-4,
-4,
-4,
-4,
-4,
-3,
-3,
-4,
-3,
-4,
-4,
-4,
-4,
-4,
-4,
-4,
-4,
-4,
-3,
-4,
-3,
-4,
-4,
-4,
-4,
-3,
-4,
-3,
-3,
-3,
-3,
-4,
-3,
-4,
-3,
-4,
-4,
-4,
-4,
-3,
-4,
-4,
-4,
-4,
-3,
-4,
-4,
-3,
-4,
-4,
-4,
-4,
-4,
-4,
-3,
-3,
-4,
-4,
-4,
-4,
-3,
-4,
-4,
-4,
-3,
-3,
-4,
-4,
-3,
-3,
-3,
-4,
-4,
-3,
-4,
-3,
-3,
-4,
-4,
-4,
-4,
-4,
-3,
-4,
-4,
-4,
-3,
-4,
-3,
-3,
-4,
-3,
-4,
-3,
-4,
-4,
-3,
-4,
-4,
-3,
-4,
-4,
-4,
-4,
-3,
-3,
-3,
-4,
-3,
-3,
-4,
-4,
-4,
-3,
-3,
-4,
-3,
-3,
-4,
-4,
-4,
-3,
-3,
-4,
-3,
-4,
-3,
-4,
-3,
-4,
-4,
-4,
-4,
-3,
-4,
-4,
-4,
-4,
-4,
-4,
-3,
-3,
-4,
-4,
-4,
-4,
-3,
-3,
-4,
-3,
-4,
-4,
-4,
-3,
-3,
-4,
-4,
-3,
-3,
-4,
-4,
-3,
-2,
-4,
-4,
-3,
-3,
-4,
-4,
-3,
-4,
-3,
-4,
-4,
-4,
-3,
-3,
-4,
-4,
-4,
-4,
-4,
-4,
-3,
-3,
-3,
-4,
-3,
-4,
-3,
-4,
-4,
-4,
-3,
-4,
-4,
-3,
-3,
-4,
-4,
-4,
-3,
-4,
-4,
-3,
-4,
-4,
-4,
-4,
-4,
-4,
-3,
-3,
-2,
-4,
-4,
-4,
-4,
-4,
-3,
-3,
-3,
-4,
-4,
-4,
-3,
-4,
-4,
-4,
-3,
-3,
-3,
-4,
-4,
-3,
-3,
-3,
-3,
-4,
-4,
-4,
-4,
-3,
-3,
-4,
-3,
-3,
-4,
-4,
-3,
-4,
-4,
-3,
-4,
-3,
-3,
-4,
-4,
-3,
-3,
-3,
-3,
-4,
-4,
-3,
-4,
-4,
-4,
-4,
-3,
-3,
-4,
-4,
-3,
-4,
-4,
-4,
-3,
-3,
-4,
-4,
-3,
-4,
-4,
-4,
-4,
-3,
-4,
-3,
-4,
-3,
-4,
-4,
-4,
-4,
-4,
-4,
-3,
-3,
-3,
-4,
-4,
-4,
-4,
-3,
-3,
-4,
-3,
-4,
-4,
-4,
-3,
-3,
-4,
-4,
-3,
-4,
-4,
-4,
-3,
-4,
-4,
-4,
-4,
-3,
-4,
-4,
-4,
-4,
-4,
-4,
-4,
-4,
-4,
-4,
-4,
-3,
-3,
-4,
-3,
-4,
-4,
-4,
-4,
-4,
-3,
-3,
-4,
-4,
-4,
-4,
-4,
-4,
-3,
-4,
-3,
-4,
-3,
-4,
-4,
-3,
-3,
-4,
-3,
-3,
-4,
-4,
-4,
-3,
-4,
-3,
-4,
-4,
-4,
-4,
-3,
-4,
-4,
-3,
-3,
-4,
-3,
-3,
-4,
-3,
-4,
-3,
-4,
-3,
-4,
-3,
-4,
-4,
-3,
-4,
-4,
-3,
-4,
-3,
-3,
-4,
-4,
-4,
-4,
-4,
-4,
-3,
-4,
-4,
-4,
-4,
-3,
-4,
-4,
-4,
-4,
-4,
-3,
-3,
-3,
-4,
-3,
-3,
-3,
-4,
-4,
-4,
-4,
-4,
-3,
-4,
-4,
-3,
-4,
-4,
-4,
-3,
-4,
-4,
-4,
-4,
-2,
-4,
-4,
-4,
-3,
-4,
-4,
-4,
-4,
-3,
-4,
-3,
-4,
-4,
-4,
-3,
-3,
-4,
-3,
-3,
-4,
-4,
-4,
-4,
-4,
-4,
-4,
-4,
-3,
-4,
-3,
-3,
-4,
-4,
-4,
-3,
-4,
-3,
-4,
-4,
-3,
-4,
-4,
-3,
-4,
-4,
-4,
-4,
-4,
-3,
-4,
-4,
-4,
-4,
-4,
-4,
-4,
-4,
-4,
-3,
-4,
-3,
-3,
-3,
-3,
-2,
-3,
-4,
-3,
-4,
-4,
-4,
-4,
-4,
-4,
-3,
-4,
-3,
-3,
-4,
-4,
-3,
-4,
-4,
-3,
-4,
-4,
-4,
-3,
-4,
-4,
-3,
-4,
-4,
-4,
-3,
-3,
-4,
-3,
-3,
-4,
-4,
-4,
-4,
-4,
-3,
-4,
-4,
-4,
-4,
-4,
-4,
-3,
-4,
-4,
-3,
-4,
-3,
-4,
-3,
-4,
-4,
-4,
-4,
-4,
-4,
-3,
-4,
-4,
-3,
-4,
-4,
-4,
-4,
-4,
-4,
-4,
-4,
-3,
-3,
-4,
-4,
-4,
-4,
-4,
-3,
-3,
-3,
-4,
-4,
-4,
-4,
-3,
-4,
-4,
-4,
-3,
-3,
-3,
-3,
-4,
-4,
-3,
-4,
-3,
-4,
-4,
-4,
-4,
-3,
-2,
-4,
-3,
-4,
-4,
-4,
-4,
-4,
-3,
-4,
-3,
-4,
-3,
-3,
-3,
-4,
-4,
-4,
-4,
-4,
-3,
-4,
-4,
-3,
-4,
-4,
-4,
-3,
-4,
-4,
-4,
-4,
-4,
-4,
-4,
-3,
-4,
-4,
-3,
-4,
-4,
-3,
-4,
-4,
-4,
-3,
-4,
-4,
-4,
-4,
-4,
-4,
-2,
-4,
-3,
-4,
-4,
-3,
-4,
-3,
-4,
-4,
-4,
-4,
-4,
-4,
-4,
-4,
-4,
-4,
-4,
-4,
-4,
-4,
-4,
-4,
-4,
-4,
-4,
-4,
-4,
-3,
-4,
-3,
-4,
-4,
-4,
-4,
-4,
-4,
-4,
-3,
-4,
-4,
-4,
-4,
-4,
-3,
-4,
-3,
-3,
-3,
-3,
-2,
-3,
-2,
-2,
-2,
-1,
-1,
0,
0,
0,
0,
1,
2,
2,
3,
3,
4,
4,
4,
5,
6,
7,
8,
8,
9,
10,
10,
11,
12,
13,
14,
14,
15,
16,
17,
18,
19,
20,
20,
21,
22,
23,
24,
26,
26,
27,
28,
29,
30,
31,
32,
33,
34,
35,
36,
37,
38,
39,
40,
42,
42,
44,
44,
46,
47,
48,
49,
50,
51,
52,
54,
55,
55,
57,
58,
59,
60,
61,
62,
63,
64,
65,
67,
67,
68,
70,
70,
71,
72,
74,
75,
76,
78,
78,
79,
79,
80,
82,
83,
84,
85,
86,
87,
88,
89,
90,
91,
92,
92,
94,
95,
95,
97,
98,
98,
99,
100,
101,
102,
103,
103,
105,
106,
106,
108,
108,
109,
110,
110,
111,
112,
113,
114,
115,
115,
116,
117,
118,
118,
119,
120,
120,
122,
122,
123,
124,
124,
125,
126,
126,
127,
127,
128,
128,
128,
130,
130,
131,
131,
131,
132,
132,
132,
134,
135,
135,
135,
136,
136,
137,
137,
138,
138,
138,
139,
139,
140,
139,
140,
141,
141,
142,
142,
142,
142,
142,
143,
143,
143,
144,
144,
144,
144,
144,
144,
145,
145,
145,
146,
146,
146,
146,
146,
146,
147,
147,
147,
147,
147,
147,
148,
148,
148,
148,
147,
148,
148,
148,
148,
148,
148,
148,
148,
149,
148,
148,
149,
149,
149,
148,
148,
148,
148,
149,
148,
148,
148,
148,
148,
148,
148,
148,
148,
148,
148,
148,
148,
148,
148,
147,
147,
147,
147,
147,
147,
147,
147,
146,
147,
147,
146,
146,
146,
146,
146,
146,
145,
146,
145,
145,
144,
144,
144,
144,
144,
143,
144,
144,
143,
143,
143,
143,
143,
142,
142,
142,
142,
142,
142,
142,
141,
141,
141,
140,
140,
140,
140,
140,
140,
140,
139,
139,
139,
139,
138,
138,
138,
138,
138,
138,
137,
137,
137,
137,
136,
136,
136,
136,
136,
135,
135,
135,
134,
134,
134,
134,
134,
134,
134,
134,
134,
134,
133,
133,
132,
132,
132,
132,
132,
131,
131,
131,
131,
131,
131,
130,
130,
130,
130,
130,
130,
128,
129,
128,
128,
128,
128,
128,
128,
128,
128,
128,
128,
127,
127,
127,
127,
127,
127,
127,
126,
126,
126,
126,
126,
126,
126,
126,
125,
126,
125,
125,
124,
124,
124,
124,
125,
124,
123,
124,
124,
124,
124,
124,
123,
124,
123,
123,
123,
123,
123,
123,
122,
122,
123,
122,
122,
123,
122,
122,
122,
122,
122,
122,
122,
122,
122,
122,
122,
121,
122,
122,
122,
121,
121,
121,
121,
121,
121,
121,
121,
120,
121,
121,
120,
120,
120,
120,
120,
121,
120,
120,
120,
121,
120,
120,
121,
120,
120,
121,
120,
120,
120,
120,
120,
120,
120,
120,
120,
120,
120,
120,
120,
120,
120,
120,
120,
120,
120,
120,
120,
120,
120,
120,
120,
120,
120,
120,
120,
120,
120,
120,
120,
120,
120,
120,
120,
120,
120,
120,
120,
120,
120,
121,
122,
122,
121,
121,
120,
120,
120,
120,
120,
121,
121,
121,
121,
122,
121,
121,
121,
121,
122,
121,
122,
122,
122,
122,
122,
122,
121,
122,
122,
122,
121,
122,
122,
122,
122,
122,
122,
122,
122,
122,
122,
122,
122,
122,
122,
122,
123,
122,
122,
122,
122,
122,
123,
122,
123,
123,
123,
122,
123,
123,
123,
123,
122,
123,
123,
123,
123,
123,
124,
123,
124,
123,
124,
123,
124,
123,
123,
124,
123,
123,
124,
124,
124,
124,
124,
124,
124,
124,
124,
123,
124,
124,
124,
124,
124,
124,
124,
124,
124,
124,
124,
124,
124,
124,
125,
124,
124,
124,
124,
124,
124,
125,
125,
124,
124,
124,
124,
125,
124,
125,
124,
125,
125,
124,
125,
125,
125,
125,
124,
125,
125,
125,
125,
124,
125,
125,
125,
125,
125,
125,
125,
125,
125,
125,
126,
126,
126,
126,
125,
126,
126,
126,
125,
125,
125,
126,
125,
126,
126,
126,
126,
126,
126,
125,
126,
126,
126,
126,
126,
126,
125,
126,
125,
126,
126,
126,
126,
126,
126,
126,
126,
126,
126,
126,
126,
126,
126,
126,
126,
126,
126,
126,
126,
126,
126,
126,
126,
125,
125,
126,
126,
126,
126,
125,
126,
126,
126,
126,
126,
126,
126,
126,
125,
126,
125,
126,
126,
126,
125,
126,
126,
126,
126,
126,
126,
126,
126,
126,
126,
126,
126,
125,
126,
126,
126,
126,
126,
125,
126,
126,
126,
126,
126,
126,
125,
126,
125,
126,
124,
125,
126,
126,
126,
126,
126,
126,
126,
125,
126,
125,
126,
125,
126,
125,
125,
126,
125,
126,
126,
126,
125,
125,
125,
125,
125,
125,
125,
125,
126,
124,
125,
125,
126,
125,
125,
126,
126,
125,
125,
125,
125,
125,
125,
126,
126,
125,
126,
125,
125,
125,
126,
125,
124,
125,
125,
126,
125,
125,
125,
124,
125,
125,
125,
125,
125,
126,
125,
125,
124,
125,
124,
124,
125,
125,
125,
125,
124,
124,
124,
125,
124,
125,
124,
125,
125,
124,
125,
125,
124,
124,
125,
125,
125,
124,
124,
124,
125,
125,
125,
125,
124,
124,
124,
125,
124,
125,
125,
125,
124,
125,
126,
124,
125,
124,
125,
125,
124,
124,
124,
125,
124,
125,
124,
124,
124,
124,
125,
125,
124,
124,
124,
125,
125,
124,
124,
125,
124,
125,
125,
125,
124,
124,
124,
124,
124,
125,
124,
124,
124,
124,
125,
124,
125,
124,
124,
124,
124,
124,
124,
124,
124,
124,
124,
124,
124,
124,
125,
125,
124,
125,
124,
124,
124,
124,
125,
125,
124,
124,
125,
125,
124,
124,
124,
125,
124,
124,
124,
124,
124,
124,
124,
124,
124,
124,
124,
124,
124,
124,
124,
125,
124,
124,
125,
125,
124,
125,
124,
124,
124,
125,
124,
125,
124,
125,
124,
124,
125,
124,
124,
124,
124,
124,
124,
125,
124,
124,
124,
124,
124,
125,
124,
125,
124,
124,
124,
124,
124,
125,
125,
124,
124,
124,
124,
126,
124,
124,
124,
124,
124,
125,
124,
124,
124,
125,
124,
124,
125,
124,
124,
125,
124,
124,
124,
124,
125,
124,
124,
124,
125,
124,
124,
124,
124,
125,
124,
124,
124,
124,
124,
124,
124,
124,
124,
124,
125,
125,
125,
124,
124,
125,
124,
125,
125,
124,
124,
124,
125,
124,
124,
125,
124,
124,
124,
124,
124,
124,
125,
124,
124,
124,
125,
124,
124,
125,
124,
124,
125,
124,
124,
124,
124,
124,
126,
125,
124,
125,
124,
124,
125,
124,
126,
125,
124,
124,
124,
124,
124,
125,
125,
124,
125,
124,
125,
124,
124,
124,
124,
124,
124,
125,
124,
124,
124,
124,
125,
124,
124,
124,
124,
124,
124,
124,
124,
125,
124,
124,
124,
125,
124,
125,
125,
125,
124,
124,
124,
125,
124,
124,
125,
124,
124,
125,
125,
124,
125,
124,
124,
124,
125,
125,
124,
124,
124,
124,
124,
125,
124,
124,
124,
125,
125,
124,
125,
124,
124,
124,
124,
124,
124,
125,
124,
124,
124,
124,
125,
124,
125,
125,
125,
125,
125,
124,
124,
124,
124,
125,
124,
126,
124,
125,
125,
125,
125,
124,
124,
124,
125,
124,
125,
125,
124,
125,
124,
124,
124,
124,
125,
125,
125,
125,
124,
124,
124,
125,
125,
124,
124,
125,
124,
125,
124,
124,
124,
124,
124,
126,
124,
124,
124,
125,
124,
124,
124,
124,
125,
124,
124,
124,
124,
125,
124,
124,
125,
124,
125,
125,
124,
124,
124,
124,
124,
124,
124,
125,
124,
124,
124,
125,
124,
124,
126,
124,
125,
124,
124,
124,
124,
124,
124,
124,
125,
124,
124,
124,
124,
124,
124,
124,
124,
124,
124,
124,
125,
125,
124,
124,
124,
125,
125,
124,
124,
125,
124,
124,
124,
125,
124,
124,
124,
124,
124,
125,
124,
124,
124,
124,
124,
125,
124,
124,
124,
124,
124,
125,
124,
124,
124,
124,
124,
124,
124,
124,
125,
124,
124,
124,
124,
125,
124,
124,
124,
124,
124,
125,
124,
125,
124,
124,
124,
124,
124,
124,
124,
124,
124,
124,
125,
124,
124,
125,
125,
124,
124,
125,
124,
124,
124,
125,
124,
124,
124,
125,
124,
124,
124,
124,
124,
124,
124,
124,
125,
125,
124,
125,
125,
124,
124,
124,
124,
124,
124,
124,
124,
124,
124,
125,
124,
124,
124,
125,
125,
124,
124,
125,
124,
124,
124,
124,
124,
125,
124,
124,
124,
124,
124,
124,
125,
124,
124,
124,
124,
124,
124,
124,
124,
124,
124,
124,
124,
124,
124,
124,
124,
124,
124,
125,
124,
124,
124,
124,
124,
125,
124,
124,
124,
125,
124,
124,
124,
124,
124,
124,
124,
124,
124,
124,
124,
124,
125,
124,
124,
125,
124,
125,
125,
125,
124,
124,
125,
124,
124,
125,
124,
125,
124,
124,
125,
124,
125,
124,
124,
124,
124,
124,
124,
124,
124,
124,
124,
124,
126,
124,
124,
125,
124,
124,
124,
124,
124,
124,
126,
125,
124,
124,
124,
124,
124,
124,
124,
124,
124,
125,
125,
125,
124,
124,
124,
124,
124,
124,
125,
124,
124,
124,
126,
124,
124,
124,
124,
124,
125,
124,
124,
124,
124,
124,
124,
125,
124,
124,
124,
124,
124,
124,
124,
124,
124,
125,
125,
124,
124,
124,
124,
125,
124,
124,
124,
125,
124,
124,
124,
124,
124,
124,
125,
124,
124,
125,
124,
124,
124,
124,
124,
124,
124,
124,
124,
125,
124,
124,
124,
124,
124,
124,
124,
125,
124,
124,
125,
124,
124,
124,
124,
124,
124,
125,
124,
124,
124,
124,
124,
124,
124,
124,
124,
124,
124,
124,
124,
124,
124,
124,
124,
124,
125,
124,
124,
124,
124,
124,
124,
124,
124,
124,
124,
124,
125,
124,
124,
124,
124,
124,
124,
125,
124,
124,
125,
124,
124,
124,
124,
124,
124,
124,
125,
124,
124,
125,
124,
124,
124,
124,
125,
124,
124,
124,
124,
124,
124,
124,
124,
124,
124,
124,
124,
124,
124,
124,
124,
124,
125,
125,
125,
124,
124,
124,
124,
124,
124,
124,
124,
124,
125,
124,
124,
124,
124,
124,
124,
124,
124,
124,
125,
125,
124,
124,
124,
124,
124,
124,
124,
126,
124,
124,
124,
125,
124,
124,
124,
124,
124,
124,
125,
124,
124,
124,
125,
124,
124,
124,
124,
124,
124,
124,
124,
124,
124,
125,
124,
125,
124,
125,
124,
124,
124,
124,
125,
124,
124,
124,
124,
125,
124,
125,
124,
124,
124,
124,
124,
124,
124,
124,
125,
124,
124,
124,
124,
124,
124,
124,
124,
124,
124,
124,
124,
125,
124,
124,
125,
124,
124,
124,
125,
125,
124,
125,
124,
124,
124,
124,
124,
124,
124,
125,
124,
124,
124,
124,
124,
124,
124,
125,
124,
124,
124,
124,
124,
124,
125,
124,
124,
124,
124,
124,
124,
124,
124,
124,
124,
124,
124,
124,
124,
124,
124,
124,
124,
124,
124,
124,
124,
124,
124,
124,
124,
124,
124,
125,
125,
124,
124,
124,
124,
124,
125,
124,
124,
124,
124,
124,
124,
124,
124,
124,
124,
124,
124,
124,
125,
124,
124,
124,
124,
124,
124,
125,
124,
124,
124,
124,
125,
124,
124,
124,
124,
124,
125,
124,
124,
124,
124,
125,
124,
124,
124,
124,
125,
125,
124,
124,
125,
124,
125,
124,
125,
124,
124,
125,
125,
124,
124,
125,
124,
124,
124,
125,
124,
124,
124,
124,
124,
124,
125,
125,
124,
124,
124,
124,
125,
124,
124,
124,
124,
124,
124,
124,
125,
124,
124,
124,
124,
124,
124,
124,
124,
124,
124,
124,
125,
124,
124,
125,
124,
124,
124,
124,
124,
124,
125,
124,
124,
124,
124,
124,
124,
124,
124,
124,
125,
124,
124,
124,
124,
124,
124,
124,
124,
124,
124,
125,
125,
125,
124,
124,
124,
124,
125,
124,
124,
124,
124,
124,
124,
124,
124,
124,
124,
124,
124,
125,
124,
124,
125,
124,
124,
124,
124,
124,
124,
124,
124,
124,
124,
125,
124,
124,
124,
124,
125,
124,
124,
125,
124,
125,
124,
124,
124,
124,
124,
124,
124,
124,
124,
124,
124,
124,
125,
125,
124,
124,
124,
124,
125,
124,
124,
124,
124,
124,
125,
124,
124,
124,
125,
125,
124,
124,
124,
124,
124,
124,
124,
125,
124,
124,
124,
125,
125,
125,
124,
124,
124,
124,
124,
125,
124,
124,
124,
124,
124,
124,
124,
125,
124,
124,
124,
124,
124,
124,
124,
125,
124,
125,
124,
124,
124,
124,
124,
125,
124,
124,
124,
124,
124,
124,
124,
124,
124,
124,
124,
124,
124,
124,
124,
124,
124,
125,
124,
124,
124,
125,
124,
125,
124,
124,
124,
124,
124,
124,
124,
124,
124,
124,
124,
124,
124,
124,
124,
124,
125,
124,
124,
124,
124,
124,
124,
124,
125,
124,
124,
124,
124,
124,
124,
124,
124,
124,
124,
124,
125,
124,
124,
124,
125,
124,
124,
125,
124,
125,
124,
124,
124,
124,
125,
124,
124,
124,
124,
124,
124,
124,
124,
124,
124,
124,
125,
124,
124,
124,
124,
124,
124,
124,
124,
125,
124,
125,
125,
124,
124,
124,
124,
124,
124,
124,
124,
124,
124,
125,
125,
124,
125,
124,
124,
124,
124,
124,
124,
125,
124,
124,
124,
124,
124,
125,
124,
124,
124,
125,
124,
125,
124,
124,
124,
124,
125,
125,
124,
124,
124,
124,
125,
124,
124,
124,
124,
124,
124,
124,
124,
124,
124,
124,
124,
124,
126,
124,
124,
124,
124,
124,
124,
124,
124,
124,
124,
124,
124,
124,
124,
124,
124,
124,
124,
124,
124,
124,
124,
125,
124,
124,
124,
124,
124,
124,
124,
124,
124,
124,
124,
124,
124,
124,
124,
124,
125,
124,
124,
124,
125,
125,
125,
124,
124,
124,
124,
124,
124,
124,
124,
124,
124,
124,
124,
124,
125,
124,
124,
124,
124,
124,
124,
124,
125,
125,
124,
124,
124,
124,
124,
124,
124,
124,
124,
124,
125,
124,
124,
124,
124,
124,
124,
124,
124,
124,
124,
125,
125,
124,
124,
125,
125,
124,
124,
124,
124,
124,
124,
124,
124,
124,
124,
124,
124,
124,
124,
124,
124,
124,
124,
124,
124,
124,
124,
124,
124,
125,
124,
124,
124,
124,
125,
124,
124,
124,
125,
124,
124,
125,
124,
124,
124,
124,
124,
124,
124,
124,
124,
124,
125,
124,
124,
124,
124,
125,
124,
124,
124,
124,
124,
124,
125,
124,
124,
124,
124,
124,
125,
124,
124,
124,
124,
124,
124,
124,
124,
124,
124,
124,
124,
125,
124,
124,
124,
124,
124,
124,
124,
124,
125,
125,
124,
124,
124,
125,
124,
125,
124,
124,
124,
125,
125,
124,
124,
124,
124,
124,
124,
125,
125,
124,
124,
124,
124,
124,
125,
124,
124,
124,
124,
124,
124,
125,
124,
124,
124,
125,
124,
125,
124,
125,
124,
124,
124,
125,
124,
124,
124,
125,
124,
124,
124,
124,
125,
124,
124,
124,
124,
124,
124,
124,
124,
124,
125,
124,
124,
124,
124,
124,
125,
124,
124,
124,
125,
125,
124,
125,
124,
124,
125,
124,
124,
124,
124,
124,
124,
124,
124,
124,
125,
124,
124,
124,
124,
124,
124,
124,
124,
124,
124,
125,
124,
124,
124,
124,
125,
124,
124,
124,
124,
124,
125,
124,
124,
124,
124,
124,
124,
124,
124,
124,
124,
124,
124,
125,
124,
124,
124,
124,
125,
124,
124,
124,
124,
124,
124,
124,
124,
124,
124,
124,
124,
124,
124,
124,
124,
124,
124,
125,
126,
124,
124,
124,
124,
124,
124,
124,
124,
124,
124,
124,
125,
124,
124,
124,
124,
124,
124,
124,
124,
124,
124,
125,
124,
124,
124,
124,
124,
124,
124,
125,
125,
125,
124,
124,
124,
124,
124,
124,
124,
125,
124,
124,
124,
124,
124,
124,
124,
124,
124,
124,
124,
125,
124,
124,
124,
125,
124,
124,
124,
124,
124,
124,
124,
124,
124,
124,
125,
124,
124,
124,
124,
124,
124,
124,
124,
124,
124,
124,
124,
124,
124,
124,
124,
124,
124,
124,
125,
124,
124,
124,
124,
124,
124,
124,
124,
124,
124,
124,
124,
124,
124,
124,
124,
124,
124,
124,
124,
124,
124,
125,
125,
125,
124,
124,
125,
124,
124,
124,
124,
124,
124,
124,
124,
124,
124,
124,
124,
124,
124,
124,
124,
124,
124,
124,
124,
124,
124,
124,
124,
124,
124,
124,
124,
124,
124,
125,
124,
124,
124,
125,
124,
124,
125,
125,
125,
124,
124,
124,
124,
124,
124,
124,
124,
124,
124,
124,
124,
125,
124,
124,
124,
124,
124,
124,
124,
124,
124,
124,
124,
124,
124,
124,
124,
125,
124,
124,
124,
124,
124,
124,
125,
124,
124,
124,
124,
124,
124,
124,
125,
124,
124,
124,
124,
125,
124,
124,
124,
124,
124,
124,
125,
124,
125,
124,
124,
125,
124,
124,
124,
124,
124,
124,
124,
124,
124,
124,
124,
124,
124,
124,
124,
124,
124,
124,
124,
124,
124,
124,
124,
124,
124,
124,
124,
124,
124,
124,
124,
124,
124,
124,
124,
124,
124,
124,
124,
124,
124,
125,
124,
124,
124,
124,
124,
125,
124,
125,
124,
124,
124,
124,
124,
124,
125,
124,
124,
124,
124,
124,
124,
124,
125,
124,
124,
124,
125,
124,
124,
124,
124,
124,
124,
124,
124,
124,
124,
124,
124,
124,
124,
124,
124,
124,
124,
124,
124,
124,
124,
124,
124,
124,
124,
124,
125,
124,
124,
125,
124,
124,
124,
124,
125,
124,
124,
124,
124,
124,
124,
124,
124,
124,
124,
124,
124,
124,
124,
124,
124,
124,
124,
124,
124,
124,
124,
124,
124,
124,
124,
124,
124,
124,
124,
124,
124,
124,
124,
124,
124,
124,
124,
124,
124,
124,
125,
124,
124,
124,
124,
125,
124,
124,
124,
125,
124,
124,
125,
124,
124,
124,
125,
124,
124,
124,
124,
124,
124,
124,
124,
124,
124,
125,
124,
124,
124,
124,
124,
124,
124,
124,
124,
124,
125,
124,
124,
124,
124,
124,
124,
124,
124,
124,
124,
124,
124,
124,
124,
124,
124,
124,
124,
124,
124,
124,
124,
124,
124,
124,
124,
124,
124,
125,
124,
124,
124,
124,
124,
124,
124,
124,
124,
124,
124,
125,
124,
124,
124,
124,
124,
124,
124,
124,
124,
124,
124,
124,
125,
124,
124,
124,
124,
124,
