ee201/project-1/res/A0029CH1.CSV

Memory Length,4000,
Trigger Level,6.400E-01,
Source,CH1,
Probe,10X,
Vertical Units,V,
Vertical Scale,2.000E-01,
Vertical Position,-6.320E-01,
Horizontal Units,s,
Horizontal Scale,2.500E-04,
Horizontal Position,1.010E-03,
Horizontal Mode,Main,
Sampling Period,1.000E-06,
Firmware,V1.13,
Time, ,
Mode,Fast,
Waveform Data,
123,
123,
-4,
-4,
-4,
-4,
-4,
-4,
-4,
-4,
-4,
-4,
-4,
-4,
-4,
-3,
-4,
-4,
-4,
-4,
-4,
-4,
-4,
-4,
-4,
-4,
-4,
-4,
-4,
-4,
-4,
-4,
-4,
-4,
-4,
-4,
-4,
-4,
-4,
-4,
-3,
-4,
-4,
-4,
-4,
-4,
-3,
-4,
-4,
-4,
-4,
-4,
-4,
-4,
-4,
-4,
-4,
-3,
-4,
-4,
-3,
-4,
-4,
-4,
-4,
-4,
-4,
-4,
-4,
-4,
-4,
-4,
-4,
-4,
-4,
-3,
-4,
-4,
-4,
-4,
-4,
-4,
-4,
-4,
-4,
-4,
-4,
-4,
-4,
-4,
-4,
-4,
-4,
-4,
-4,
-4,
-4,
-4,
-4,
-4,
-4,
-4,
-4,
-4,
-4,
-4,
-4,
-4,
-4,
-4,
-4,
-4,
-4,
-4,
-4,
-4,
-4,
-4,
-4,
-4,
-4,
-4,
-4,
-4,
-4,
-4,
-4,
-4,
-4,
-4,
-4,
-4,
-5,
-4,
-4,
-4,
-4,
-4,
-4,
-4,
-4,
-4,
-4,
-5,
-4,
-4,
-4,
-4,
-4,
-4,
-4,
-4,
-4,
-4,
-4,
-4,
-4,
-4,
-4,
-3,
-4,
-4,
-4,
-4,
-4,
-4,
-4,
-3,
-5,
-4,
-4,
-4,
-4,
-4,
-4,
-4,
-4,
-4,
-4,
-3,
-4,
-4,
-4,
-4,
-3,
-4,
-4,
-4,
-4,
-4,
-4,
-3,
-4,
-4,
-4,
-4,
-4,
-4,
-4,
-4,
-4,
-4,
-3,
-3,
-4,
-4,
-4,
-4,
-4,
-3,
-4,
-4,
-4,
-4,
-4,
-4,
-4,
-4,
-4,
-4,
-4,
-4,
-4,
-3,
-4,
-4,
-4,
-4,
-4,
-4,
-3,
-4,
-4,
-4,
-4,
-4,
-4,
-4,
-4,
-4,
-4,
-4,
-4,
-4,
-4,
-4,
-4,
-3,
-4,
-4,
-4,
-4,
-4,
-4,
-4,
-3,
-4,
-4,
-4,
-4,
-3,
-4,
-4,
-4,
-4,
-4,
-4,
-4,
-4,
-4,
-3,
-4,
-4,
-4,
-3,
-4,
-4,
-3,
-4,
-4,
-3,
-3,
-4,
-4,
-4,
-4,
-4,
-4,
-4,
-4,
-4,
-4,
-3,
-4,
-4,
-4,
-4,
-4,
-4,
-4,
-4,
-4,
-4,
-4,
-4,
-4,
-4,
-4,
-4,
-4,
-4,
-4,
-3,
-4,
-4,
-4,
-3,
-4,
-4,
-4,
-3,
-4,
-4,
-4,
-4,
-4,
-4,
-3,
-4,
-4,
-4,
-4,
-4,
-4,
-3,
-4,
-3,
-4,
-4,
-4,
-4,
-4,
-4,
-4,
-4,
-4,
-3,
-4,
-4,
-4,
-4,
-3,
-4,
-4,
-4,
-3,
-4,
-4,
-4,
-4,
-4,
-4,
-4,
-4,
-4,
-4,
-4,
-4,
-4,
-4,
-4,
-4,
-4,
-4,
-4,
-4,
-3,
-4,
-4,
-4,
-4,
-4,
-4,
-4,
-4,
-4,
-4,
-4,
-4,
-3,
-3,
-4,
-4,
-4,
-4,
-4,
-3,
-3,
-4,
-4,
-4,
-4,
-4,
-4,
-4,
-4,
-3,
-4,
-4,
-3,
-4,
-4,
-4,
-4,
-4,
-4,
-4,
-4,
-4,
-4,
-4,
-4,
-4,
-4,
-4,
-4,
-4,
-4,
-4,
-4,
-4,
-4,
-4,
-4,
-4,
-4,
-4,
-4,
-4,
-4,
-4,
-4,
-4,
-4,
-4,
-4,
-3,
-3,
-4,
-4,
-4,
-4,
-4,
-4,
-4,
-4,
-4,
-4,
-4,
-4,
-4,
-5,
-4,
-4,
-4,
-4,
-4,
-4,
-4,
-3,
-3,
-4,
-3,
-3,
-3,
-4,
-3,
-4,
-4,
-4,
-4,
-3,
-4,
-4,
-4,
-4,
-3,
-4,
-4,
-4,
-4,
-4,
-4,
-3,
-4,
-3,
-3,
-4,
-4,
-4,
-4,
-4,
-4,
-4,
-4,
-4,
-4,
-4,
-4,
-4,
-3,
-4,
-4,
-4,
-4,
-4,
-4,
-3,
-4,
-4,
-4,
-4,
-3,
-4,
-3,
-4,
-4,
-4,
-4,
-4,
-4,
-3,
-4,
-4,
-4,
-4,
-4,
-4,
-4,
-3,
-4,
-4,
-4,
-4,
-4,
-4,
-4,
-4,
-3,
-4,
-4,
-4,
-4,
-4,
-4,
-4,
-4,
-4,
-4,
-4,
-4,
-4,
-4,
-3,
-3,
-3,
-4,
-3,
-4,
-3,
-4,
-4,
-4,
-4,
-4,
-4,
-4,
-4,
-4,
-4,
-4,
-4,
-4,
-4,
-4,
-4,
-4,
-4,
-4,
-3,
-4,
-4,
-4,
-4,
-4,
-4,
-4,
-4,
-4,
-4,
-4,
-4,
-4,
-4,
-4,
-3,
-4,
-4,
-4,
-4,
-4,
-4,
-4,
-4,
-4,
-4,
-4,
-4,
-4,
-4,
-3,
-4,
-3,
-4,
-4,
-4,
-3,
-4,
-4,
-4,
-3,
-4,
-4,
-4,
-4,
-4,
-4,
-4,
-4,
-4,
-4,
-4,
-4,
-3,
-4,
-4,
-4,
-4,
-4,
-4,
-3,
-4,
-4,
-4,
-4,
-4,
-4,
-4,
-4,
-4,
-4,
-4,
-4,
-4,
-4,
-3,
-4,
-4,
-4,
-3,
-4,
-3,
-4,
-4,
-4,
-4,
-4,
-4,
-4,
-4,
-4,
-3,
-4,
-4,
-3,
-4,
-4,
-4,
-3,
-4,
-4,
-4,
-4,
-4,
-4,
-4,
-4,
-4,
-4,
-3,
-4,
-4,
-3,
-4,
-4,
-4,
-4,
-4,
-4,
-3,
-4,
-4,
-4,
-4,
-4,
-4,
-4,
-4,
-4,
-4,
-3,
-4,
-4,
-4,
-4,
-4,
-3,
-4,
-4,
-4,
-3,
-4,
-3,
-3,
-4,
-4,
-4,
-4,
-3,
-3,
-4,
-4,
-4,
-4,
-3,
-4,
-4,
-4,
-4,
-4,
-3,
-4,
-4,
-4,
-4,
-4,
-4,
-4,
-4,
-4,
-4,
-3,
-4,
-4,
-4,
-4,
-4,
-4,
-4,
-4,
-4,
-4,
-4,
-4,
-3,
-4,
-4,
-4,
-4,
-4,
-4,
-4,
-4,
-4,
-4,
-3,
-4,
-4,
-4,
-4,
-4,
-4,
-4,
-4,
-4,
-4,
-4,
-4,
-4,
-4,
-4,
-4,
-3,
-4,
-4,
-4,
-4,
-3,
-4,
-4,
-4,
-4,
-4,
-5,
-4,
-4,
-4,
-4,
-4,
-4,
-4,
-4,
-4,
-4,
-4,
-4,
-4,
-4,
-4,
-4,
-4,
-4,
-4,
-4,
-4,
-4,
-4,
-4,
-4,
-4,
-4,
-4,
-4,
-4,
-4,
-4,
-4,
-4,
-4,
-4,
-4,
-4,
-4,
-4,
-4,
-4,
-4,
-4,
-4,
-4,
-4,
-4,
-4,
-4,
-4,
-4,
-3,
-4,
-4,
-4,
-4,
-4,
-4,
-4,
-4,
-4,
-4,
-4,
-4,
-4,
-4,
-4,
-4,
-4,
-4,
-4,
-4,
-4,
-4,
-4,
-4,
-4,
-4,
-4,
-4,
-4,
-4,
-4,
-4,
-4,
-4,
-4,
-4,
-4,
-4,
-4,
-4,
-4,
-4,
-4,
-4,
-4,
-4,
-4,
-4,
-4,
-4,
-4,
-4,
-4,
-4,
-4,
-4,
-4,
-4,
-4,
-4,
-4,
-4,
-4,
-4,
-4,
-3,
-4,
-4,
-4,
-4,
-4,
-4,
-4,
-4,
-4,
-4,
-4,
-4,
-4,
-4,
-4,
-4,
-4,
-4,
-4,
-4,
-4,
-4,
-4,
-4,
-4,
-4,
-4,
-4,
-4,
-4,
-4,
-4,
-4,
-4,
-4,
-4,
-4,
-4,
-4,
-4,
-4,
-4,
-4,
-3,
-4,
-3,
-3,
-4,
-4,
-4,
-4,
-3,
-4,
-2,
-2,
-3,
124,
124,
123,
123,
123,
123,
123,
123,
123,
123,
122,
122,
122,
122,
122,
122,
122,
122,
122,
122,
122,
121,
122,
122,
122,
122,
122,
122,
122,
121,
122,
122,
121,
122,
121,
122,
121,
121,
121,
122,
122,
122,
121,
121,
121,
122,
121,
122,
121,
120,
122,
121,
121,
121,
122,
122,
122,
121,
122,
122,
121,
122,
121,
122,
121,
121,
121,
121,
122,
122,
121,
121,
121,
121,
121,
122,
122,
121,
121,
121,
121,
122,
121,
121,
121,
121,
121,
121,
121,
121,
122,
121,
122,
122,
122,
121,
121,
122,
122,
121,
121,
121,
121,
122,
121,
121,
122,
121,
122,
121,
121,
121,
121,
121,
121,
122,
122,
121,
122,
122,
122,
122,
122,
122,
122,
122,
122,
121,
122,
122,
122,
122,
122,
122,
122,
122,
122,
122,
122,
122,
122,
122,
122,
122,
122,
122,
122,
122,
122,
122,
122,
122,
122,
123,
122,
122,
123,
123,
122,
123,
123,
122,
123,
123,
123,
122,
122,
123,
123,
123,
123,
123,
123,
123,
123,
123,
123,
123,
123,
122,
123,
123,
123,
123,
123,
123,
123,
123,
123,
123,
123,
123,
123,
123,
123,
123,
123,
123,
123,
123,
123,
123,
123,
123,
123,
123,
123,
123,
123,
123,
123,
123,
123,
123,
123,
123,
123,
123,
124,
124,
123,
123,
124,
123,
123,
124,
123,
123,
123,
124,
124,
124,
123,
123,
123,
124,
124,
123,
123,
124,
124,
124,
123,
123,
123,
124,
124,
124,
124,
123,
124,
124,
123,
124,
124,
124,
124,
124,
124,
123,
124,
124,
124,
124,
124,
124,
124,
124,
124,
124,
124,
124,
124,
124,
124,
124,
124,
123,
124,
124,
124,
124,
123,
124,
124,
123,
124,
123,
124,
124,
124,
124,
124,
124,
124,
124,
124,
124,
124,
124,
124,
124,
125,
123,
124,
124,
124,
124,
124,
124,
124,
124,
124,
124,
124,
124,
123,
124,
124,
124,
124,
124,
124,
124,
124,
124,
124,
124,
124,
124,
124,
124,
124,
124,
124,
124,
124,
124,
124,
124,
124,
124,
123,
124,
124,
124,
124,
124,
124,
124,
124,
124,
124,
124,
124,
124,
124,
124,
124,
124,
124,
123,
124,
124,
123,
124,
124,
124,
124,
124,
124,
124,
124,
124,
124,
124,
124,
124,
124,
124,
124,
124,
124,
123,
124,
124,
124,
124,
124,
124,
124,
124,
124,
124,
124,
124,
124,
124,
124,
124,
124,
124,
124,
125,
125,
124,
124,
124,
124,
124,
124,
124,
124,
124,
124,
124,
124,
124,
124,
124,
124,
124,
124,
123,
124,
124,
124,
123,
123,
124,
123,
124,
124,
124,
123,
124,
124,
124,
124,
124,
124,
124,
124,
124,
124,
123,
124,
123,
124,
124,
123,
123,
123,
123,
123,
123,
123,
124,
123,
124,
124,
124,
124,
124,
123,
124,
123,
123,
124,
124,
124,
123,
124,
124,
124,
123,
124,
124,
124,
124,
123,
124,
123,
124,
124,
124,
123,
124,
124,
124,
123,
124,
124,
123,
123,
123,
124,
124,
124,
124,
123,
124,
124,
124,
123,
123,
123,
124,
123,
124,
124,
123,
124,
124,
124,
124,
124,
124,
124,
123,
123,
124,
124,
124,
124,
124,
124,
123,
123,
124,
123,
124,
124,
124,
123,
124,
124,
124,
123,
124,
123,
124,
124,
124,
123,
124,
124,
124,
123,
124,
124,
123,
123,
123,
123,
123,
124,
123,
123,
124,
124,
124,
124,
123,
124,
124,
124,
124,
124,
124,
124,
123,
124,
123,
124,
124,
124,
124,
124,
123,
124,
123,
123,
123,
123,
124,
124,
123,
124,
123,
124,
124,
124,
124,
124,
123,
124,
124,
124,
123,
124,
124,
124,
123,
124,
124,
124,
123,
123,
124,
123,
124,
123,
124,
123,
123,
123,
124,
124,
124,
124,
124,
123,
124,
124,
124,
124,
123,
124,
124,
124,
123,
124,
124,
124,
124,
123,
124,
124,
124,
123,
124,
124,
124,
124,
123,
124,
123,
124,
124,
123,
123,
124,
124,
124,
124,
123,
123,
123,
124,
124,
124,
124,
123,
123,
123,
123,
124,
123,
124,
123,
124,
124,
124,
124,
124,
124,
123,
124,
124,
123,
124,
123,
124,
124,
123,
124,
124,
124,
124,
124,
124,
124,
124,
124,
124,
124,
124,
124,
124,
124,
124,
124,
124,
123,
124,
123,
124,
124,
123,
123,
123,
124,
124,
124,
123,
124,
124,
124,
124,
123,
124,
124,
124,
124,
124,
124,
123,
124,
123,
124,
124,
124,
123,
123,
124,
124,
124,
123,
123,
124,
124,
124,
124,
123,
123,
124,
124,
124,
124,
124,
124,
124,
124,
124,
123,
124,
123,
124,
124,
123,
124,
124,
124,
123,
123,
124,
123,
124,
123,
123,
124,
123,
124,
124,
124,
123,
124,
124,
124,
124,
124,
124,
124,
123,
123,
124,
123,
123,
123,
124,
124,
123,
123,
124,
124,
124,
124,
123,
123,
124,
124,
124,
124,
124,
123,
124,
124,
123,
124,
124,
123,
123,
124,
124,
124,
124,
123,
124,
124,
124,
123,
124,
124,
123,
123,
124,
124,
124,
124,
124,
124,
124,
124,
124,
124,
123,
124,
123,
124,
124,
124,
124,
124,
123,
123,
124,
123,
124,
124,
124,
124,
124,
123,
124,
124,
124,
123,
124,
124,
123,
124,
124,
124,
124,
124,
124,
123,
123,
124,
123,
123,
124,
123,
123,
124,
123,
124,
124,
124,
124,
124,
124,
124,
124,
124,
124,
123,
124,
124,
124,
124,
123,
123,
123,
123,
124,
124,
124,
123,
124,
124,
124,
124,
124,
124,
123,
124,
124,
123,
124,
123,
123,
124,
124,
124,
123,
124,
124,
124,
123,
123,
124,
124,
123,
123,
124,
124,
124,
124,
124,
123,
124,
124,
124,
123,
123,
123,
123,
124,
124,
124,
124,
124,
123,
124,
124,
123,
124,
123,
123,
123,
124,
124,
123,
124,
124,
123,
123,
123,
123,
123,
124,
124,
124,
123,
124,
124,
124,
123,
123,
123,
124,
124,
124,
124,
124,
124,
123,
123,
124,
124,
124,
124,
123,
124,
124,
123,
124,
124,
124,
124,
124,
124,
124,
124,
124,
123,
124,
123,
123,
124,
123,
123,
123,
124,
123,
124,
124,
123,
124,
123,
123,
123,
123,
123,
124,
123,
124,
123,
123,
123,
124,
124,
124,
124,
124,
123,
123,
123,
123,
124,
124,
123,
123,
123,
123,
123,
124,
124,
123,
124,
124,
123,
124,
123,
123,
124,
123,
123,
123,
124,
124,
124,
123,
124,
124,
124,
123,
124,
123,
123,
123,
123,
123,
124,
124,
123,
124,
123,
123,
124,
124,
124,
124,
124,
123,
123,
123,
124,
124,
123,
124,
123,
124,
123,
123,
123,
123,
124,
123,
124,
124,
123,
124,
124,
123,
124,
123,
123,
123,
123,
123,
124,
123,
124,
124,
124,
123,
123,
123,
124,
123,
123,
124,
123,
123,
124,
124,
124,
123,
123,
123,
123,
123,
124,
123,
123,
124,
123,
123,
124,
124,
123,
123,
124,
124,
123,
123,
123,
123,
123,
124,
124,
123,
124,
123,
123,
124,
123,
124,
124,
123,
124,
124,
123,
123,
123,
124,
124,
123,
123,
124,
124,
124,
123,
124,
124,
124,
123,
124,
124,
123,
123,
124,
124,
124,
124,
124,
123,
123,
124,
123,
123,
123,
123,
124,
124,
124,
124,
124,
123,
124,
124,
123,
124,
123,
123,
124,
124,
123,
124,
124,
124,
123,
124,
123,
123,
124,
124,
123,
123,
124,
124,
124,
123,
123,
124,
123,
123,
124,
124,
124,
124,
123,
124,
123,
123,
123,
123,
124,
123,
123,
123,
124,
124,
124,
124,
124,
124,
124,
124,
123,
123,
124,
124,
124,
123,
123,
123,
123,
123,
123,
123,
124,
124,
124,
123,
124,
123,
123,
123,
124,
123,
123,
124,
123,
123,
123,
123,
123,
123,
124,
124,
124,
124,
123,
124,
123,
123,
123,
123,
123,
124,
123,
123,
123,
124,
124,
124,
123,
124,
123,
124,
123,
123,
123,
123,
123,
123,
123,
124,
124,
123,
124,
123,
123,
124,
123,
123,
124,
123,
123,
123,
123,
124,
123,
124,
123,
123,
123,
123,
123,
124,
124,
124,
123,
123,
124,
123,
124,
124,
123,
123,
123,
123,
123,
124,
123,
124,
124,
123,
124,
124,
124,
124,
124,
124,
123,
123,
123,
123,
123,
124,
123,
123,
123,
124,
123,
123,
124,
124,
123,
123,
124,
123,
123,
124,
123,
123,
123,
124,
123,
123,
123,
123,
123,
123,
123,
124,
123,
124,
123,
123,
124,
124,
124,
123,
124,
124,
124,
123,
123,
123,
123,
123,
123,
123,
124,
124,
124,
123,
123,
123,
123,
123,
124,
123,
124,
124,
124,
124,
123,
123,
123,
124,
123,
123,
124,
123,
124,
124,
123,
124,
123,
124,
124,
124,
123,
123,
124,
123,
123,
124,
124,
124,
123,
123,
123,
123,
123,
123,
124,
123,
123,
124,
123,
123,
124,
123,
124,
123,
123,
124,
124,
124,
123,
123,
124,
124,
123,
124,
124,
123,
124,
123,
123,
123,
124,
123,
123,
123,
123,
123,
124,
123,
123,
124,
123,
123,
123,
124,
123,
123,
123,
123,
124,
123,
123,
123,
123,
124,
124,
124,
123,
123,
123,
123,
123,
123,
123,
123,
123,
124,
123,
123,
124,
123,
124,
124,
124,
123,
123,
123,
124,
124,
124,
124,
124,
123,
124,
123,
123,
123,
123,
124,
123,
123,
123,
123,
123,
123,
124,
123,
123,
124,
123,
124,
123,
123,
123,
124,
124,
123,
124,
123,
123,
123,
123,
123,
124,
123,
123,
123,
123,
124,
124,
123,
123,
123,
124,
124,
124,
123,
123,
124,
124,
124,
123,
123,
123,
123,
123,
123,
123,
123,
123,
124,
123,
123,
124,
123,
124,
123,
124,
123,
123,
124,
124,
123,
123,
123,
123,
123,
123,
124,
123,
124,
123,
123,
123,
123,
123,
123,
123,
123,
123,
123,
124,
123,
123,
123,
124,
123,
123,
123,
124,
123,
124,
123,
124,
123,
123,
123,
124,
124,
123,
123,
124,
123,
123,
123,
123,
123,
123,
124,
124,
123,
124,
124,
123,
123,
123,
124,
124,
123,
124,
124,
123,
123,
124,
123,
123,
123,
123,
124,
124,
123,
123,
124,
123,
124,
123,
123,
123,
124,
124,
123,
124,
124,
123,
123,
124,
123,
123,
123,
124,
123,
124,
124,
124,
123,
123,
123,
124,
123,
123,
123,
123,
123,
123,
123,
124,
123,
124,
123,
123,
123,
124,
124,
124,
123,
123,
123,
124,
123,
124,
123,
124,
123,
123,
123,
123,
123,
123,
123,
123,
123,
123,
124,
124,
123,
124,
123,
124,
123,
124,
123,
123,
124,
124,
123,
124,
123,
123,
123,
124,
123,
123,
123,
123,
123,
123,
123,
124,
123,
124,
123,
123,
123,
123,
123,
123,
123,
124,
123,
123,
123,
123,
123,
123,
123,
124,
123,
124,
124,
123,
123,
123,
124,
123,
124,
124,
124,
123,
123,
124,
123,
123,
124,
123,
123,
123,
123,
123,
123,
123,
123,
123,
123,
123,
123,
123,
123,
123,
124,
123,
123,
123,
123,
123,
123,
123,
123,
123,
123,
123,
123,
123,
123,
123,
123,
123,
123,
123,
124,
123,
123,
123,
123,
123,
123,
123,
123,
123,
124,
123,
123,
123,
124,
123,
123,
123,
123,
123,
123,
123,
123,
124,
123,
123,
123,
123,
123,
123,
123,
124,
124,
124,
123,
123,
124,
123,
123,
123,
123,
124,
123,
124,
124,
123,
123,
123,
124,
123,
123,
123,
123,
123,
123,
124,
123,
124,
123,
123,
123,
123,
123,
123,
123,
123,
123,
123,
124,
123,
123,
123,
123,
123,
123,
123,
123,
123,
123,
124,
123,
124,
123,
123,
123,
124,
123,
123,
123,
123,
123,
123,
123,
123,
123,
123,
123,
123,
123,
124,
123,
123,
124,
123,
123,
123,
123,
123,
123,
123,
123,
123,
123,
123,
123,
123,
123,
123,
123,
123,
123,
123,
123,
123,
123,
123,
123,
123,
123,
123,
123,
123,
123,
123,
123,
123,
123,
123,
123,
123,
124,
123,
123,
123,
123,
123,
123,
123,
123,
123,
123,
124,
123,
123,
123,
123,
123,
123,
123,
123,
123,
124,
123,
123,
123,
123,
123,
123,
123,
124,
123,
123,
123,
124,
124,
123,
123,
123,
123,
123,
123,
123,
123,
123,
123,
123,
123,
124,
123,
123,
123,
123,
123,
123,
124,
123,
123,
124,
123,
123,
123,
124,
123,
123,
123,
123,
123,
124,
123,
123,
123,
123,
123,
123,
123,
123,
123,
123,
123,
123,
124,
124,
123,
123,
123,
124,
124,
124,
123,
123,
123,
124,
123,
123,
123,
123,
123,
123,
123,
124,
124,
123,
123,
123,
123,
124,
123,
123,
123,
123,
123,
123,
124,
124,
123,
123,
123,
123,
124,
123,
123,
124,
124,
123,
123,
123,
123,
123,
123,
123,
123,
123,
123,
123,
123,
123,
123,
123,
123,
123,
123,
123,
123,
123,
123,
123,
123,
123,
123,
123,
124,
123,
123,
124,
123,
123,
123,
123,
123,
124,
123,
123,
124,
123,
123,
123,
124,
123,
123,
123,
123,
123,
123,
123,
123,
123,
123,
124,
123,
123,
124,
123,
124,
124,
123,
123,
123,
123,
123,
123,
123,
123,
123,
124,
123,
123,
123,
123,
123,
123,
123,
124,
123,
123,
123,
123,
123,
123,
124,
123,
124,
123,
123,
123,
124,
123,
123,
123,
123,
123,
124,
123,
123,
124,
123,
123,
124,
123,
123,
123,
123,
123,
123,
123,
123,
123,
123,
123,
123,
123,
124,
123,
123,
123,
123,
124,
123,
124,
123,
123,
123,
123,
123,
123,
123,
123,
123,
123,
123,
123,
123,
123,
124,
123,
123,
123,
123,
123,
123,
123,
123,
124,
123,
123,
123,
123,
123,
124,
123,
123,
123,
123,
123,
123,
123,
124,
123,
123,
123,
123,
123,
123,
123,
123,
123,
123,
123,
124,
123,
123,
123,
123,
123,
123,
123,
124,
123,
124,
123,
123,
123,
123,
123,
123,
123,
123,
123,
123,
123,
124,
123,
123,
123,
123,
124,
124,
124,
123,
123,
123,
123,
123,
123,
123,
123,
123,
123,
123,
123,
123,
124,
123,
123,
123,
123,
124,
123,
124,
124,
123,
123,
123,
123,
123,
124,
124,
123,
123,
123,
123,
123,
123,
123,
123,
123,
123,
123,
123,
123,
123,
123,
123,
123,
123,
123,
123,
123,
123,
123,
123,
123,
123,
123,
123,
123,
123,
123,
123,
123,
124,
123,
123,
123,
123,
123,
123,
123,
123,
123,
123,
124,
123,
124,
124,
124,
123,
123,
123,
123,
123,
123,
123,
123,
123,
123,
123,
123,
123,
123,
123,
123,
123,
123,
123,
123,
124,
123,
123,
124,
123,
123,
123,
123,
123,
123,
123,
123,
123,
124,
124,
123,
123,
123,
123,
123,
123,
123,
123,
123,
124,
124,
123,
123,
123,
123,
123,
123,
123,
123,
123,
123,
123,
123,
123,
124,
123,
123,
124,
123,
123,
123,
123,
124,
123,
123,
123,
123,
123,
123,
123,
123,
124,
123,
123,
123,
123,
123,
123,
124,
123,
123,
123,
123,
123,
123,
123,
123,
123,
123,
123,
123,
123,
123,
123,
124,
124,
123,
123,
123,
123,
124,
123,
123,
123,
123,
123,
123,
123,
123,
123,
123,
123,
123,
123,
123,
123,
123,
124,
123,
123,
123,
123,
124,
123,
124,
124,
124,
123,
124,
124,
123,
123,
123,
123,
123,
123,
123,
123,
123,
123,
123,
123,
123,
123,
123,
123,
124,
123,
123,
123,
123,
123,
123,
123,
123,
123,
123,
123,
123,
123,
123,
123,
123,
123,
123,
123,
123,
123,
123,
123,
123,
124,
123,
123,
123,
123,
123,
123,
123,
123,
123,
123,
123,
123,
123,
123,
123,
123,
123,
123,
123,
123,
123,
123,
123,
123,
123,
124,
123,
123,
123,
123,
123,
123,
123,
123,
123,
123,
123,
123,
123,
123,
123,
123,
123,
123,
123,
123,
123,
124,
123,
123,
123,
123,
123,
123,
123,
123,
123,
123,
123,
124,
123,
123,
123,
123,
123,
123,
123,
123,
124,
123,
123,
123,
123,
123,
123,
123,
123,
123,
123,
123,
123,
123,
123,
123,
123,
124,
123,
123,
123,
123,
123,
123,
123,
123,
123,
123,
123,
123,
123,
123,
123,
123,
123,
123,
123,
123,
123,
123,
123,
123,
123,
123,
123,
123,
123,
123,
123,
123,
123,
123,
123,
123,
123,
123,
123,
123,
123,
123,
123,
123,
123,
123,
123,
124,
123,
123,
123,
123,
123,
123,
123,
123,
123,
123,
123,
123,
123,
123,
123,
123,
123,
123,
123,
123,
123,
123,
123,
123,
123,
123,
123,
123,
123,
123,
123,
123,
123,
123,
123,
123,
123,
123,
123,
123,
123,
123,
123,
123,
123,
123,
123,
123,
123,
123,
123,
123,
123,
123,
123,
123,
123,
123,
123,
123,
123,
123,
123,
123,
123,
123,
123,
123,
123,
123,
123,
123,
123,
123,
123,
123,
123,
123,
123,
123,
123,
123,
123,
123,
123,
123,
123,
123,
123,
123,
123,
123,
123,
123,
123,
123,
123,
123,
123,
123,
124,
123,
123,
123,
123,
123,
123,
123,
123,
123,
123,
123,
123,
123,
124,
123,
123,
123,
123,
123,
123,
123,
123,
123,
123,
123,
123,
123,
123,
123,
123,
123,
123,
123,
123,
123,
123,
123,
123,
123,
123,
123,
123,
123,
123,
123,
123,
123,
123,
123,
123,
123,
123,
123,
123,
123,
123,
123,
123,
123,
123,
123,
123,
123,
123,
123,
123,
123,
123,
123,
123,
123,
123,
123,
123,
123,
123,
123,
123,
123,
123,
123,
123,
123,
123,
123,
124,
124,
123,
123,
123,
123,
123,
124,
123,
123,
123,
123,
123,
123,
123,
123,
123,
123,
123,
123,
123,
123,
123,
123,
123,
123,
123,
123,
123,
123,
123,
123,
123,
123,
123,
123,
123,
123,
123,
123,
123,
123,
123,
123,
123,
124,
124,
123,
123,
124,
123,
123,
123,
123,
123,
124,
123,
123,
123,
123,
123,
123,
123,
123,
123,
123,
123,
123,
123,
123,
123,
123,
123,
123,
123,
124,
123,
123,
123,
123,
123,
123,
123,
123,
123,
123,
123,
123,
123,
123,
123,
123,
123,
123,
123,
123,
123,
123,
123,
123,
123,
124,
123,
123,
123,
123,
123,
123,
123,
123,
123,
123,
123,
123,
123,
123,
123,
123,
123,
123,
123,
123,
123,
123,
123,
123,
123,
123,
123,
123,
123,
123,
123,
123,
123,
123,
123,
123,
123,
123,
123,
124,
123,
123,
123,
123,
123,
123,
123,
123,
123,
123,
123,
123,
